{
  "defaults": {
    "reporters": [
      ["tests/helpers/echo-reporter.js", { "foo": 1, "bar": "baz" }]
    ],
    "timeout": 30000
  },
  "urls": [
    "https://www.google.com",
    {
      "url": "https://pa11y.org",
      "timeout": 5
    }
  ]
}
